; Engine configuration file.
; It's best edited using the editor UI and not directly,
; since the parameters that go here are not all obvious.
;
; Format:
;   [section] ; section goes between []
;   param=value ; assign values to parameters

config_version=4

_global_script_classes=[ {
"base": "Resource",
"class": "RandomWord",
"language": "GDScript",
"path": "res://RandomWord.gd"
} ]
_global_script_class_icons={
"RandomWord": ""
}

[application]

config/name="Lcs-remake"
run/main_scene="res://Title Screen.tscn"
config/icon="res://icon.png"

[display]

window/stretch/mode="2d"
window/stretch/aspect="keep"

[physics]

common/enable_pause_aware_picking=true

[rendering]

environment/default_environment="res://default_env.tres"
