[gd_scene load_steps=2 format=2]

[ext_resource path="res://Title Screen.gd" type="Script" id=1]

[node name="Title Screen" type="Control"]
anchor_right = 1.0
anchor_bottom = 1.0
size_flags_horizontal = 3
size_flags_vertical = 3
script = ExtResource( 1 )
__meta__ = {
"_edit_use_anchors_": false
}

[node name="ColorRect" type="ColorRect" parent="."]
anchor_right = 1.0
anchor_bottom = 1.0
size_flags_horizontal = 3
size_flags_vertical = 3
color = Color( 0.117647, 0.262745, 0.509804, 1 )
__meta__ = {
"_edit_use_anchors_": false
}

[node name="VBoxContainer" type="VBoxContainer" parent="ColorRect"]
anchor_top = 0.5
anchor_right = 1.0
anchor_bottom = 0.5
margin_left = 50.0
margin_top = -32.0
margin_right = -50.0
margin_bottom = 32.0
size_flags_horizontal = 3
__meta__ = {
"_edit_use_anchors_": false
}

[node name="RichTextLabel" type="RichTextLabel" parent="ColorRect/VBoxContainer"]
margin_right = 924.0
margin_bottom = 40.0
rect_min_size = Vector2( 120, 40 )
size_flags_horizontal = 3
size_flags_vertical = 3
text = "Liberal Crime Squad"

[node name="NewGame" type="Button" parent="ColorRect/VBoxContainer"]
margin_top = 44.0
margin_right = 924.0
margin_bottom = 64.0
text = "New game"

[connection signal="pressed" from="ColorRect/VBoxContainer/NewGame" to="." method="_on_NewGame_pressed"]
