[gd_resource type="Resource" load_steps=2 format=2]

[ext_resource path="res://RandomWord.gd" type="Script" id=1]

[resource]
script = ExtResource( 1 )
word_list = [ "catgirls", "furries", "gaymers", "The Gays (tm)", "porn stars", "headpats", "witches", "femboys" ]
